{
	"type": "minecraft:crafting_shaped",
	"pattern": [
		"B B",
		" B ",
		"B B"
	],
	"key": {
		"B": {
			"item": "minecraft:bone"
		}
	},
	"result": {
		"item": "essenceplus:large_bone",
		"data": 0,
		"count": 1
	}
}