{
    "textures": {
        "particle": "essenceplus:blocks/creepola_portal",
        "portal": "essenceplus:blocks/creepola_portal"
    },
    "elements": [
        {   "from": [ 6, 0, 0 ],
            "to": [ 10, 16, 16 ],
            "faces": {
                "east": { "uv": [ 0, 0, 16, 16 ], "texture": "#portal" },
                "west": { "uv": [ 0, 0, 16, 16 ], "texture": "#portal" }
            }
        }
    ]
}