{
    "parent": "block/cube_bottom_top",
    "textures": {
        "particle": "essenceplus:blocks/creepola_dirt",
        "bottom": "essenceplus:blocks/creepola_dirt",
        "top": "essenceplus:blocks/creepola_grass_top",
        "side": "essenceplus:blocks/creepola_grass_side"
    }
}
